Franklin Santos: Análisis del cambio de la temperatura del aire
…
library(tidyverse)
library(plotly)
library(highcharter)
library(ggbeeswarm)
library(wesanderson)

Importar datos

La base de datos se descargó de FAOSTAT

key_crops <- read_csv("FAOSTAT_data_3-10-2021.csv")

key_crops

# A tibble: 10,384 x 14
   `Domain Code` Domain    `Area Code` Area   `Element Code` Element  
   <chr>         <chr>           <dbl> <chr>           <dbl> <chr>    
 1 ET            Temperat…        5101 Easte…           7271 Temperat…
 2 ET            Temperat…        5101 Easte…           7271 Temperat…
 3 ET            Temperat…        5101 Easte…           7271 Temperat…
 4 ET            Temperat…        5101 Easte…           7271 Temperat…
 5 ET            Temperat…        5101 Easte…           7271 Temperat…
 6 ET            Temperat…        5101 Easte…           7271 Temperat…
 7 ET            Temperat…        5101 Easte…           7271 Temperat…
 8 ET            Temperat…        5101 Easte…           7271 Temperat…
 9 ET            Temperat…        5101 Easte…           7271 Temperat…
10 ET            Temperat…        5101 Easte…           7271 Temperat…
# … with 10,374 more rows, and 8 more variables: Months Code <dbl>,
#   Months <chr>, Year Code <dbl>, Year <dbl>, Unit <chr>,
#   Value <dbl>, Flag <chr>, Flag Description <chr>

La base de datos fue adecuada para la respectiva visualización. Para ello, el siguiente código es pertinente.

fsdata <- key_crops%>%
  select(Area, Months, Year, Element, Value)%>%
  pivot_wider(names_from = Element,
              values_from = Value) %>%
  rename(Temperature="Temperature change", sd="Standard Deviation")

fsdata

# A tibble: 5,192 x 5
   Area           Months       Year Temperature    sd
   <chr>          <chr>       <dbl>       <dbl> <dbl>
 1 Eastern Africa Dec–Jan–Feb  1961       0.312 0.323
 2 Eastern Africa Dec–Jan–Feb  1962      -0.38  0.323
 3 Eastern Africa Dec–Jan–Feb  1963      -0.186 0.323
 4 Eastern Africa Dec–Jan–Feb  1964      -0.016 0.323
 5 Eastern Africa Dec–Jan–Feb  1965      -0.524 0.323
 6 Eastern Africa Dec–Jan–Feb  1966       0.238 0.323
 7 Eastern Africa Dec–Jan–Feb  1967       0.057 0.323
 8 Eastern Africa Dec–Jan–Feb  1968      -0.426 0.323
 9 Eastern Africa Dec–Jan–Feb  1969       0.051 0.323
10 Eastern Africa Dec–Jan–Feb  1970       0.289 0.323
# … with 5,182 more rows
…
