Tendencias de rendimiento de los cultivos
…
Ahora ordenamos los datos de rendimiento de los cultivos para los países y cultivos de interes.

tidy_yields <- key_crop_yields %>%
  janitor::clean_names() %>%
  pivot_longer(wheat_tonnes_per_hectare:bananas_tonnes_per_hectare,
    names_to = "crop", values_to = "yield") %>%
  mutate(crop = str_remove(crop, "_tonnes_per_hectare")) %>%
  filter(
    crop %in% c("wheat", "rice", "maize", "barley"),
    entity %in% top_countries,
    !is.na(yield)
  )
tidy_yields

# A tibble: 2,022 x 5
   entity     code   year crop   yield
   <chr>      <chr> <dbl> <chr>  <dbl>
 1 Bangladesh BGD    1961 wheat  0.574
 2 Bangladesh BGD    1961 rice   1.70 
 3 Bangladesh BGD    1961 maize  0.799
 4 Bangladesh BGD    1961 barley 0.577
 5 Bangladesh BGD    1962 wheat  0.675
 6 Bangladesh BGD    1962 rice   1.53 
 7 Bangladesh BGD    1962 maize  0.738
 8 Bangladesh BGD    1962 barley 0.544
 9 Bangladesh BGD    1963 wheat  0.607
10 Bangladesh BGD    1963 rice   1.77 
# … with 2,012 more rows
…
Tenga en cuenta que no todos los países producen todos los cultivos, pero que el rendimiento general de los cultivos está aumentando.

Muchos modelos

Ahora ajustemos un modelo lineal a cada combinación de cultivo y país.

library(tidymodels)
tidy_lm <- tidy_yields %>%
  nest(yields = c(year, yield)) %>%
  mutate(model = map(yields, ~ lm(yield ~ year, data = .x)))
tidy_lm

# A tibble: 37 x 5
   entity     code  crop   yields            model 
   <chr>      <chr> <chr>  <list>            <list>
 1 Bangladesh BGD   wheat  <tibble [58 × 2]> <lm>  
 2 Bangladesh BGD   rice   <tibble [58 × 2]> <lm>  
 3 Bangladesh BGD   maize  <tibble [58 × 2]> <lm>  
 4 Bangladesh BGD   barley <tibble [58 × 2]> <lm>  
 5 Brazil     BRA   wheat  <tibble [58 × 2]> <lm>  
 6 Brazil     BRA   rice   <tibble [58 × 2]> <lm>  
 7 Brazil     BRA   maize  <tibble [58 × 2]> <lm>  
 8 Brazil     BRA   barley <tibble [58 × 2]> <lm>  
 9 China      CHN   wheat  <tibble [58 × 2]> <lm>  
10 China      CHN   rice   <tibble [58 × 2]> <lm>  
# … with 27 more rows

A continuación, vamos a ordenar con tidy() esos modelos para obtener los coeficientes y ajustar los valores p para múltiples comparaciones.

slopes <- tidy_lm %>%
  mutate(coefs = map(model, tidy)) %>%
  unnest(coefs) %>%
  filter(term == "year") %>%
  mutate(p.value = p.adjust(p.value))
slopes

# A tibble: 37 x 10
   entity  code  crop  yields model term  estimate std.error statistic
   <chr>   <chr> <chr> <list> <lis> <chr>    <dbl>     <dbl>     <dbl>
 1 Bangla… BGD   wheat <tibb… <lm>  year   0.0389   0.00253      15.4 
 2 Bangla… BGD   rice  <tibb… <lm>  year   0.0600   0.00231      26.0 
 3 Bangla… BGD   maize <tibb… <lm>  year   0.122    0.0107       11.3 
 4 Bangla… BGD   barl… <tibb… <lm>  year   0.00505  0.000596      8.47
 5 Brazil  BRA   wheat <tibb… <lm>  year   0.0366   0.00222      16.5 
 6 Brazil  BRA   rice  <tibb… <lm>  year   0.0755   0.00490      15.4 
 7 Brazil  BRA   maize <tibb… <lm>  year   0.0709   0.00395      18.0 
 8 Brazil  BRA   barl… <tibb… <lm>  year   0.0466   0.00319      14.6 
 9 China   CHN   wheat <tibb… <lm>  year   0.0880   0.00141      62.6 
10 China   CHN   rice  <tibb… <lm>  year   0.0843   0.00289      29.2 
# … with 27 more rows, and 1 more variable: p.value <dbl>
…
