Franklin Santos: Extraer y ordenar datos FAOSTAT con Tidyverse
…
Para proceder con la ordenación de datos, analizar y/o generar otro tipo de actividades con R, recomiendo crear un proyecto a traves de RStudio. Esto facilita el flujo de trabajo dentro de R. Posterior a ello, llame al paquete tidyverse:

library(tidyverse)

Para iniciar con el trabajo es necesario que los datos descargados de FAOSTAT se encuentre dentro de los archivos del proyecto.

Para llamar los datos al entorno de R use la siguiente función:

key_crops <- read_csv("FAOSTAT_data_11-18-2020.csv")

Para verificar el marco de datos en el ambiente R, ejecute la variable key_crops.

key_crops

# A tibble: 2,657 x 14
   `Domain Code` Domain `Area Code` Area      `Element Code` Element
   <chr>         <chr>        <dbl> <chr>              <dbl> <chr>  
 1 QC            Crops            9 Argentina           5419 Yield  
 2 QC            Crops            9 Argentina           5419 Yield  
 3 QC            Crops            9 Argentina           5419 Yield  
 4 QC            Crops            9 Argentina           5419 Yield  
 5 QC            Crops            9 Argentina           5419 Yield  
 6 QC            Crops            9 Argentina           5419 Yield  
 7 QC            Crops            9 Argentina           5419 Yield  
 8 QC            Crops            9 Argentina           5419 Yield  
 9 QC            Crops            9 Argentina           5419 Yield  
10 QC            Crops            9 Argentina           5419 Yield  
# … with 2,647 more rows, and 8 more variables: Item Code <dbl>,
#   Item <chr>, Year Code <dbl>, Year <dbl>, Unit <chr>, Value <dbl>,
#   Flag <chr>, Flag Description <chr>
…
Podemos observar los datos ordenados ejecutando long_crops

long_crops

# A tibble: 1,624 x 4
   country   crop   Year yield
   <chr>     <chr> <dbl> <dbl>
 1 Argentina Maize  1961  1.77
 2 Argentina Maize  1962  1.89
 3 Argentina Maize  1963  1.65
 4 Argentina Maize  1964  1.80
 5 Argentina Maize  1965  1.68
 6 Argentina Maize  1966  2.15
 7 Argentina Maize  1967  2.47
 8 Argentina Maize  1968  1.94
 9 Argentina Maize  1969  1.93
10 Argentina Maize  1970  2.33
# … with 1,614 more rows
…
